{
	"info": {
		"_postman_id": "1ec58b06-4185-4cdd-ae82-f22efbd68fb0",
		"name": "NewTecDev1",
		"schema": "https://schema.getpostman.com/json/collection/v2.1.0/collection.json"
	},
	"item": [
		{
			"name": "Users",
			"item": [
				{
					"name": "Create",
					"request": {
						"method": "POST",
						"header": [],
						"url": {
							"raw": "http://{{domain}}:{{port}}/users/create/?name=test1&lastName=test1&documentTypeId=3&documentNumber=999999999&birthdate=12/28/1999&cityId=3",
							"protocol": "http",
							"host": [
								"{{domain}}"
							],
							"port": "{{port}}",
							"path": [
								"users",
								"create",
								""
							],
							"query": [
								{
									"key": "name",
									"value": "test1"
								},
								{
									"key": "lastName",
									"value": "test1"
								},
								{
									"key": "documentTypeId",
									"value": "3"
								},
								{
									"key": "documentNumber",
									"value": "999999999"
								},
								{
									"key": "birthdate",
									"value": "12/28/1999",
									"description": "mes/día/año"
								},
								{
									"key": "cityId",
									"value": "3"
								}
							]
						}
					},
					"response": []
				},
				{
					"name": "Delete",
					"request": {
						"method": "DELETE",
						"header": [],
						"url": {
							"raw": "http://{{domain}}:{{port}}/users/delete/8",
							"protocol": "http",
							"host": [
								"{{domain}}"
							],
							"port": "{{port}}",
							"path": [
								"users",
								"delete",
								"8"
							]
						}
					},
					"response": []
				},
				{
					"name": "Read",
					"request": {
						"method": "GET",
						"header": [],
						"url": {
							"raw": "http://{{domain}}:{{port}}/users/read/",
							"protocol": "http",
							"host": [
								"{{domain}}"
							],
							"port": "{{port}}",
							"path": [
								"users",
								"read",
								""
							]
						}
					},
					"response": []
				},
				{
					"name": "Update",
					"request": {
						"method": "POST",
						"header": [],
						"url": {
							"raw": "http://{{domain}}:{{port}}/users/update/9?name=updated&lastName=updated&documentTypeId=2&documentNumber=1234567898&birthdate=10/01/1987&cityId=4",
							"protocol": "http",
							"host": [
								"{{domain}}"
							],
							"port": "{{port}}",
							"path": [
								"users",
								"update",
								"9"
							],
							"query": [
								{
									"key": "name",
									"value": "updated"
								},
								{
									"key": "lastName",
									"value": "updated"
								},
								{
									"key": "documentTypeId",
									"value": "2"
								},
								{
									"key": "documentNumber",
									"value": "1234567898"
								},
								{
									"key": "birthdate",
									"value": "10/01/1987",
									"description": "mes/día/año"
								},
								{
									"key": "cityId",
									"value": "4"
								}
							]
						}
					},
					"response": []
				}
			]
		},
		{
			"name": "DocumentTypes",
			"item": [
				{
					"name": "Create",
					"request": {
						"method": "POST",
						"header": [],
						"url": {
							"raw": "http://{{domain}}:{{port}}/documentTypes/create?name=test4&initials=TT4",
							"protocol": "http",
							"host": [
								"{{domain}}"
							],
							"port": "{{port}}",
							"path": [
								"documentTypes",
								"create"
							],
							"query": [
								{
									"key": "name",
									"value": "test4"
								},
								{
									"key": "initials",
									"value": "TT4"
								}
							]
						}
					},
					"response": []
				},
				{
					"name": "Read",
					"request": {
						"method": "GET",
						"header": [],
						"url": {
							"raw": "http://{{domain}}:{{port}}/documentTypes/read/",
							"protocol": "http",
							"host": [
								"{{domain}}"
							],
							"port": "{{port}}",
							"path": [
								"documentTypes",
								"read",
								""
							]
						}
					},
					"response": []
				},
				{
					"name": "Update",
					"request": {
						"method": "POST",
						"header": [],
						"url": {
							"raw": "http://{{domain}}:{{port}}/documentTypes/update/6?name=updateTest&initials=UT1",
							"protocol": "http",
							"host": [
								"{{domain}}"
							],
							"port": "{{port}}",
							"path": [
								"documentTypes",
								"update",
								"6"
							],
							"query": [
								{
									"key": "name",
									"value": "updateTest"
								},
								{
									"key": "initials",
									"value": "UT1"
								}
							]
						}
					},
					"response": []
				},
				{
					"name": "Delete",
					"request": {
						"method": "DELETE",
						"header": [],
						"url": {
							"raw": "http://{{domain}}:{{port}}/documentTypes/delete/6",
							"protocol": "http",
							"host": [
								"{{domain}}"
							],
							"port": "{{port}}",
							"path": [
								"documentTypes",
								"delete",
								"6"
							]
						}
					},
					"response": []
				}
			]
		},
		{
			"name": "Cities",
			"item": [
				{
					"name": "Create",
					"request": {
						"auth": {
							"type": "noauth"
						},
						"method": "POST",
						"header": [],
						"url": {
							"raw": "http://{{domain}}:{{port}}/cities/create?name=tesst2",
							"protocol": "http",
							"host": [
								"{{domain}}"
							],
							"port": "{{port}}",
							"path": [
								"cities",
								"create"
							],
							"query": [
								{
									"key": "name",
									"value": "tesst2"
								}
							]
						}
					},
					"response": []
				},
				{
					"name": "Read",
					"request": {
						"method": "GET",
						"header": [],
						"url": {
							"raw": "http://{{domain}}:{{port}}/cities/read/",
							"protocol": "http",
							"host": [
								"{{domain}}"
							],
							"port": "{{port}}",
							"path": [
								"cities",
								"read",
								""
							]
						}
					},
					"response": []
				},
				{
					"name": "Update",
					"request": {
						"method": "POST",
						"header": [],
						"url": {
							"raw": "http://{{domain}}:{{port}}/cities/update/6?name=updateTestToDelete",
							"protocol": "http",
							"host": [
								"{{domain}}"
							],
							"port": "{{port}}",
							"path": [
								"cities",
								"update",
								"6"
							],
							"query": [
								{
									"key": "name",
									"value": "updateTestToDelete"
								}
							]
						}
					},
					"response": []
				},
				{
					"name": "Delete",
					"request": {
						"method": "DELETE",
						"header": [],
						"url": {
							"raw": "http://{{domain}}:{{port}}/cities/delete/6",
							"protocol": "http",
							"host": [
								"{{domain}}"
							],
							"port": "{{port}}",
							"path": [
								"cities",
								"delete",
								"6"
							]
						}
					},
					"response": []
				}
			]
		}
	]
}